* installing *source* package 'rhelloworld' ...
** using staged installation
** R
** byte-compile and prepare package for lazy loading
** help
No man pages found in package  'rhelloworld' 
*** installing help indices
** building package indices
** testing if installed package can be loaded from temporary location
*** arch - i386
*** arch - x64
** testing if installed package can be loaded from final location
*** arch - i386
*** arch - x64
** testing if installed package keeps a record of temporary installation path
* DONE (rhelloworld)
